Wine Quality Prediction
…
Warning: `grid_latin_hypercube()` was deprecated in dials 1.3.0.
ℹ Please use `grid_space_filling()` instead.

xgb_grid

# A tibble: 25 × 6
   tree_depth min_n loss_reduction sample_size  mtry learn_rate
        <int> <int>          <dbl>       <dbl> <int>      <dbl>
 1         11    31   0.00000642         0.630     3   5.40e- 9
 2          7    38   0.000000392        0.653     5   3.14e- 8
 3          4     7   0.0000199          0.731    12   2.88e- 3
 4          7    12   0.0000000341       0.336     4   1.50e- 7
 5         14    20   5.24               0.975     3   2.05e- 9
 6         11     2   0.768              0.841     4   4.28e- 6
 7         13    34  24.6                0.541    11   1.82e-10
 8          6    17   0.0000724          0.404     9   4.98e- 4
 9          6    14   0.00235            0.692     6   3.24e-10
10         12    40   0.000197           0.907     7   7.02e- 8
# ℹ 15 more rows
…
Models are done, tuned, and ready. Let’s see what parameters were chosen.

Exploring Model Results

XGBoost

xgb_res %>% 
  collect_metrics()

# A tibble: 75 × 12
    mtry min_n tree_depth    learn_rate loss_reduction sample_size .metric    
   <int> <int>      <int>         <dbl>          <dbl>       <dbl> <chr>      
 1     3    31         11 0.00000000540   0.00000642         0.630 accuracy   
 2     3    31         11 0.00000000540   0.00000642         0.630 brier_class
 3     3    31         11 0.00000000540   0.00000642         0.630 roc_auc    
 4     5    38          7 0.0000000314    0.000000392        0.653 accuracy   
 5     5    38          7 0.0000000314    0.000000392        0.653 brier_class
 6     5    38          7 0.0000000314    0.000000392        0.653 roc_auc    
 7    12     7          4 0.00288         0.0000199          0.731 accuracy   
 8    12     7          4 0.00288         0.0000199          0.731 brier_class
 9    12     7          4 0.00288         0.0000199          0.731 roc_auc    
10     4    12          7 0.000000150     0.0000000341       0.336 accuracy   
# ℹ 65 more rows
# ℹ 5 more variables: .estimator <chr>, mean <dbl>, n <int>, std_err <dbl>,
#   .config <chr>
…
